%YAML 1.1
%TAG !u! tag:unity3d.com,2011:
--- !u!1045 &1
EditorBuildSettings:
  m_ObjectHideFlags: 0
  serializedVersion: 2
  m_Scenes:
  - enabled: 1
    path: Assets/[EKMEKK]/Scene/LevelManager.unity
    guid: 580bdf0a14af39441997e785f127e7e4
  - enabled: 1
    path: Assets/[EKMEKK]/Scene/LevelPerfectSlice.unity
    guid: e7617710cf68e454fb917ecab575f3f1
  m_configObjects: {}
